%YAML 1.1
%TAG !u! tag:unity3d.com,2011:
--- !u!21 &2100000
Material:
  serializedVersion: 6
  m_ObjectHideFlags: 0
  m_PrefabParentObject: {fileID: 0}
  m_PrefabInternal: {fileID: 0}
  m_Name: GreenCircl2B
  m_Shader: {fileID: 10751, guid: 0000000000000000f000000000000000, type: 0}
  m_ShaderKeywords: 
  m_LightmapFlags: 5
  m_CustomRenderQueue: -1
  stringTagMap: {}
  m_SavedProperties:
    serializedVersion: 2
    m_TexEnvs:
      data:
        first:
          name: _MainTex
        second:
          m_Texture: {fileID: 2800000, guid: 43681fc67ff5a4d618d06362849280b7, type: 3}
          m_Scale: {x: .25, y: .25}
          m_Offset: {x: .75, y: 0}
      data:
        first:
          name: _Color
        second:
          m_Texture: {fileID: 2800000, guid: 43681fc67ff5a4d618d06362849280b7, type: 3}
          m_Scale: {x: 1, y: 1}
          m_Offset: {x: 0, y: 0}
      data:
        first:
          name: _DisplacementMask
        second:
          m_Texture: {fileID: 0}
          m_Scale: {x: 1, y: 1}
          m_Offset: {x: 0, y: 0}
    m_Floats:
      data:
        first:
          name: _Cutoff
        second: .5
      data:
        first:
          name: _DisplaceAmplitude
        second: .100000001
      data:
        first:
          name: _Sheet_Size_U
        second: 4
      data:
        first:
          name: _Sheet_Size_V
        second: 4
      data:
        first:
          name: _Cycles_Per_Second
        second: 1
      data:
        first:
          name: _EdgePower
        second: .5
      data:
        first:
          name: _EdgePush
        second: .699999988
      data:
        first:
          name: _EdgeBias
        second: .200000003
      data:
        first:
          name: _Opacity
        second: 1
    m_Colors:
      data:
        first:
          name: _Color
        second: {r: 1, g: 1, b: 1, a: 1}
